## Interface: 80205
## Title: Combuctor
## Author: Tuller & Jaliborc (João Cardoso)
## Notes: Single window displays for your inventory and bank
## OptionalDeps: BagBrother, WoWUnit
## SavedVariables: Combuctor_Sets
## Version: 8.2.10

modules\main.xml
