## Interface: 80205
## Title: BagBrother
## Notes: Stores data about your characters inventory, bank, vault and guild bank, so that you may view them from anywhere.
## Author: Jaliborc (João Cardoso)
## SavedVariables: BrotherBags
## OptionalDeps: LibStub, WoWUnit

LibStub.lua
Startup.lua
Events.lua
API.lua
Interface.lua
