## Interface: 80200
## Title: HandyNotes_DungeonLocations
## Version: 1.49
## Notes: Shows locations of old world dungeon and raid entrances
## Author: Caliaha of Cairne
## RequiredDeps: HandyNotes
## SavedVariables: HandyNotes_DungeonLocationsDB

locales\Locales.xml
HandyNotes_DungeonLocations.lua
