## Interface: 80300
## Title: Skada
## Notes: Modular damage meter.
## Notes-koKR: 데미지 미터 모듈입니다.
## Notes-zhTW: 模組化的傷害統計。
## Notes-deDE: Ein Damage-Meter.
## Notes-frFR: Un damage meter.
## Notes-zhCN: 模块化伤害统计。
## Author: Zarnivoop
## Version: 1.7.7
## SavedVariables: SkadaDB
## SavedVariablesPerCharacter: SkadaPerCharDB

## OptionalDeps: Ace3, LibSharedMedia-3.0, LibWindow-1.1, LibDBIcon-1.0, AceGUI-3.0-SharedMediaWidgets, LibBossIDs-1.0, LibDualSpec-1.0, LibNotify-1.0

## X-License: MIT/X
## X-Category: Combat

embeds.xml

locale\enUS.lua
locale\ruRU.lua
locale\koKR.lua
locale\zhCN.lua
locale\zhTW.lua
locale\frFR.lua
locale\deDE.lua
locale\ptBR.lua
locale\itIT.lua
locale\esES.lua

Skada.lua
Menus.lua
Options.lua
BarDisplay.lua
InlineDisplay.lua
BrokerDisplay.lua
Version.lua

modules.xml
